[gd_resource type="SpatialMaterial" format=2]

[resource]
resource_name = "flipper_rubber"
vertex_color_use_as_albedo = true
params_cull_mode = 2
albedo_color = Color( 0.906332, 0.11682, 0, 1 )
roughness = 0.4
