[gd_scene load_steps=3 format=2]

[sub_resource type="BoxShape" id=1]

[sub_resource type="CubeMesh" id=2]

[node name="CollisionShape" type="CollisionShape"]
shape = SubResource( 1 )

[node name="MeshInstance" type="MeshInstance" parent="."]
mesh = SubResource( 2 )
material/0 = null
